<svg width="55" height="55" viewBox="0 0 55 55" fill="none" xmlns="http://www.w3.org/2000/svg">
    <circle cx="27.5" cy="27.5" r="27.5" fill="white"/>
    <path d="M39.948 17H15.7299C14.775 17 14 17.8566 14 18.912V19.9999L27.8389 26.4776L41.6779 19.998V18.912C41.6779 17.8566 40.9029 17 39.948 17Z" fill="#EACDC4"/>
    <path d="M28.1763 28.3952C28.069 28.4468 27.9531 28.4717 27.8389 28.4717C27.7248 28.4717 27.6089 28.4468 27.5016 28.3952L14 22.0762V36.1195C14 37.1749 14.775 38.0315 15.7299 38.0315H39.948C40.9029 38.0315 41.6779 37.1749 41.6779 36.1195V22.0762L28.1763 28.3952Z" fill="#EACDC4"/>
</svg>
